src/myhdl/pmux_tb4.1531155195.74.vcd
$date
    Mon Jul  9 22:23:15 2018
$end
$version
    MyHDL 0.10
$end
$timescale
    1ns
$end

$scope module pmux_tb4 $end
$var reg 1 ! in_d $end
$var reg 1 " sel_a $end
$var reg 1 # sel_b $end
$var reg 1 $ sel_c $end
$var reg 1 % sel_d $end
$var reg 1 & in_a $end
$var reg 1 ' in_b $end
$var reg 1 ( clk $end
$var reg 1 ) in_c $end
$var reg 1 * out $end
$scope module pmux40_0 $end
$var reg 1 ( clk $end
$var reg 1 % sels_sel_d $end
$var reg 1 ! ins_in_d $end
$var reg 1 " sels_sel_a $end
$var reg 1 ' ins_in_b $end
$var reg 1 $ sels_sel_c $end
$var reg 1 # sels_sel_b $end
$var reg 1 & ins_in_a $end
$var reg 1 ) ins_in_c $end
$var reg 1 * out $end
$upscope $end
$upscope $end

$enddefinitions $end
$dumpvars
0!
0"
0#
0$
0%
0&
0'
0(
0)
0*
$end
1(
#10
0(
1&
#20
1(
#30
0(
0&
1'
#40
1(
#50
0(
1&
#60
1(
#70
0(
0&
0'
1)
#80
1(
#90
0(
1&
#100
1(
#110
0(
0&
1'
#120
1(
#130
0(
1&
#140
1(
#150
0(
0&
0'
0)
1!
#160
1(
#170
0(
1&
#180
1(
#190
0(
0&
1'
#200
1(
#210
0(
1&
#220
1(
#230
0(
0&
0'
1)
#240
1(
#250
0(
1&
#260
1(
#270
0(
0&
1'
#280
1(
#290
0(
1&
#300
1(
#310
0(
0&
0'
0)
0!
1"
#320
1(
#330
0(
1&
1*
#340
1(
#350
0(
0&
1'
0*
#360
1(
#370
0(
1&
1*
#380
1(
#390
0(
0&
0'
1)
0*
#400
1(
#410
0(
1&
1*
#420
1(
#430
0(
0&
1'
0*
#440
1(
#450
0(
1&
1*
#460
1(
#470
0(
0&
0'
0)
1!
0*
#480
1(
#490
0(
1&
1*
#500
1(
#510
0(
0&
1'
0*
#520
1(
#530
0(
1&
1*
#540
1(
#550
0(
0&
0'
1)
0*
#560
1(
#570
0(
1&
1*
#580
1(
#590
0(
0&
1'
0*
#600
1(
#610
0(
1&
1*
#620
1(
#630
0(
0&
0'
0)
0!
0"
1#
0*
#640
1(
#650
0(
1&
#660
1(
#670
0(
0&
1'
1*
#680
1(
#690
0(
1&
#700
1(
#710
0(
0&
0'
1)
0*
#720
1(
#730
0(
1&
#740
1(
#750
0(
0&
1'
1*
#760
1(
#770
0(
1&
#780
1(
#790
0(
0&
0'
0)
1!
0*
#800
1(
#810
0(
1&
#820
1(
#830
0(
0&
1'
1*
#840
1(
#850
0(
1&
#860
1(
#870
0(
0&
0'
1)
0*
#880
1(
#890
0(
1&
#900
1(
#910
0(
0&
1'
1*
#920
1(
#930
0(
1&
#940
1(
#950
0(
0&
0'
0)
0!
1"
0*
#960
1(
#970
0(
1&
1*
#980
1(
#990
0(
0&
1'
0*
#1000
1(
#1010
0(
1&
1*
#1020
1(
#1030
0(
0&
0'
1)
0*
#1040
1(
#1050
0(
1&
1*
#1060
1(
#1070
0(
0&
1'
0*
#1080
1(
#1090
0(
1&
1*
#1100
1(
#1110
0(
0&
0'
0)
1!
0*
#1120
1(
#1130
0(
1&
1*
#1140
1(
#1150
0(
0&
1'
0*
#1160
1(
#1170
0(
1&
1*
#1180
1(
#1190
0(
0&
0'
1)
0*
#1200
1(
#1210
0(
1&
1*
#1220
1(
#1230
0(
0&
1'
0*
#1240
1(
#1250
0(
1&
1*
#1260
1(
#1270
0(
0&
0'
0)
0!
0"
0#
1$
0*
#1280
1(
#1290
0(
1&
#1300
1(
#1310
0(
0&
1'
#1320
1(
#1330
0(
1&
#1340
1(
#1350
0(
0&
0'
1)
1*
#1360
1(
#1370
0(
1&
#1380
1(
#1390
0(
0&
1'
#1400
1(
#1410
0(
1&
#1420
1(
#1430
0(
0&
0'
0)
1!
0*
#1440
1(
#1450
0(
1&
#1460
1(
#1470
0(
0&
1'
#1480
1(
#1490
0(
1&
#1500
1(
#1510
0(
0&
0'
1)
1*
#1520
1(
#1530
0(
1&
#1540
1(
#1550
0(
0&
1'
#1560
1(
#1570
0(
1&
#1580
1(
#1590
0(
0&
0'
0)
0!
1"
0*
#1600
1(
#1610
0(
1&
1*
#1620
1(
#1630
0(
0&
1'
0*
#1640
1(
#1650
0(
1&
1*
#1660
1(
#1670
0(
0&
0'
1)
0*
#1680
1(
#1690
0(
1&
1*
#1700
1(
#1710
0(
0&
1'
0*
#1720
1(
#1730
0(
1&
1*
#1740
1(
#1750
0(
0&
0'
0)
1!
0*
#1760
1(
#1770
0(
1&
1*
#1780
1(
#1790
0(
0&
1'
0*
#1800
1(
#1810
0(
1&
1*
#1820
1(
#1830
0(
0&
0'
1)
0*
#1840
1(
#1850
0(
1&
1*
#1860
1(
#1870
0(
0&
1'
0*
#1880
1(
#1890
0(
1&
1*
#1900
1(
#1910
0(
0&
0'
0)
0!
0"
1#
0*
#1920
1(
#1930
0(
1&
#1940
1(
#1950
0(
0&
1'
1*
#1960
1(
#1970
0(
1&
#1980
1(
#1990
0(
0&
0'
1)
0*
#2000
1(
#2010
0(
1&
#2020
1(
#2030
0(
0&
1'
1*
#2040
1(
#2050
0(
1&
#2060
1(
#2070
0(
0&
0'
0)
1!
0*
#2080
1(
#2090
0(
1&
#2100
1(
#2110
0(
0&
1'
1*
#2120
1(
#2130
0(
1&
#2140
1(
#2150
0(
0&
0'
1)
0*
#2160
1(
#2170
0(
1&
#2180
1(
#2190
0(
0&
1'
1*
#2200
1(
#2210
0(
1&
#2220
1(
#2230
0(
0&
0'
0)
0!
1"
0*
#2240
1(
#2250
0(
1&
1*
#2260
1(
#2270
0(
0&
1'
0*
#2280
1(
#2290
0(
1&
1*
#2300
1(
#2310
0(
0&
0'
1)
0*
#2320
1(
#2330
0(
1&
1*
#2340
1(
#2350
0(
0&
1'
0*
#2360
1(
#2370
0(
1&
1*
#2380
1(
#2390
0(
0&
0'
0)
1!
0*
#2400
1(
#2410
0(
1&
1*
#2420
1(
#2430
0(
0&
1'
0*
#2440
1(
#2450
0(
1&
1*
#2460
1(
#2470
0(
0&
0'
1)
0*
#2480
1(
#2490
0(
1&
1*
#2500
1(
#2510
0(
0&
1'
0*
#2520
1(
#2530
0(
1&
1*
#2540
1(
#2550
0(
0&
0'
0)
0!
0"
0#
0$
1%
0*
#2560
1(
#2570
0(
1&
#2580
1(
#2590
0(
0&
1'
#2600
1(
#2610
0(
1&
#2620
1(
#2630
0(
0&
0'
1)
#2640
1(
#2650
0(
1&
#2660
1(
#2670
0(
0&
1'
#2680
1(
#2690
0(
1&
#2700
1(
#2710
0(
0&
0'
0)
1!
1*
#2720
1(
#2730
0(
1&
#2740
1(
#2750
0(
0&
1'
#2760
1(
#2770
0(
1&
#2780
1(
#2790
0(
0&
0'
1)
#2800
1(
#2810
0(
1&
#2820
1(
#2830
0(
0&
1'
#2840
1(
#2850
0(
1&
#2860
1(
#2870
0(
0&
0'
0)
0!
1"
0*
#2880
1(
#2890
0(
1&
1*
#2900
1(
#2910
0(
0&
1'
0*
#2920
1(
#2930
0(
1&
1*
#2940
1(
#2950
0(
0&
0'
1)
0*
#2960
1(
#2970
0(
1&
1*
#2980
1(
#2990
0(
0&
1'
0*
#3000
1(
#3010
0(
1&
1*
#3020
1(
#3030
0(
0&
0'
0)
1!
0*
#3040
1(
#3050
0(
1&
1*
#3060
1(
#3070
0(
0&
1'
0*
#3080
1(
#3090
0(
1&
1*
#3100
1(
#3110
0(
0&
0'
1)
0*
#3120
1(
#3130
0(
1&
1*
#3140
1(
#3150
0(
0&
1'
0*
#3160
1(
#3170
0(
1&
1*
#3180
1(
#3190
0(
0&
0'
0)
0!
0"
1#
0*
#3200
1(
#3210
0(
1&
#3220
1(
#3230
0(
0&
1'
1*
#3240
1(
#3250
0(
1&
#3260
1(
#3270
0(
0&
0'
1)
0*
#3280
1(
#3290
0(
1&
#3300
1(
#3310
0(
0&
1'
1*
#3320
1(
#3330
0(
1&
#3340
1(
#3350
0(
0&
0'
0)
1!
0*
#3360
1(
#3370
0(
1&
#3380
1(
#3390
0(
0&
1'
1*
#3400
1(
#3410
0(
1&
#3420
1(
#3430
0(
0&
0'
1)
0*
#3440
1(
#3450
0(
1&
#3460
1(
#3470
0(
0&
1'
1*
#3480
1(
#3490
0(
1&
#3500
1(
#3510
0(
0&
0'
0)
0!
1"
0*
#3520
1(
#3530
0(
1&
1*
#3540
1(
#3550
0(
0&
1'
0*
#3560
1(
#3570
0(
1&
1*
#3580
1(
#3590
0(
0&
0'
1)
0*
#3600
1(
#3610
0(
1&
1*
#3620
1(
#3630
0(
0&
1'
0*
#3640
1(
#3650
0(
1&
1*
#3660
1(
#3670
0(
0&
0'
0)
1!
0*
#3680
1(
#3690
0(
1&
1*
#3700
1(
#3710
0(
0&
1'
0*
#3720
1(
#3730
0(
1&
1*
#3740
1(
#3750
0(
0&
0'
1)
0*
#3760
1(
#3770
0(
1&
1*
#3780
1(
#3790
0(
0&
1'
0*
#3800
1(
#3810
0(
1&
1*
#3820
1(
#3830
0(
0&
0'
0)
0!
0"
0#
1$
0*
#3840
1(
#3850
0(
1&
#3860
1(
#3870
0(
0&
1'
#3880
1(
#3890
0(
1&
#3900
1(
#3910
0(
0&
0'
1)
1*
#3920
1(
#3930
0(
1&
#3940
1(
#3950
0(
0&
1'
#3960
1(
#3970
0(
1&
#3980
1(
#3990
0(
0&
0'
0)
1!
0*
#4000
1(
#4010
0(
1&
#4020
1(
#4030
0(
0&
1'
#4040
1(
#4050
0(
1&
#4060
1(
#4070
0(
0&
0'
1)
1*
#4080
1(
#4090
0(
1&
#4100
1(
#4110
0(
0&
1'
#4120
1(
#4130
0(
1&
#4140
1(
#4150
0(
0&
0'
0)
0!
1"
0*
#4160
1(
#4170
0(
1&
1*
#4180
1(
#4190
0(
0&
1'
0*
#4200
1(
#4210
0(
1&
1*
#4220
1(
#4230
0(
0&
0'
1)
0*
#4240
1(
#4250
0(
1&
1*
#4260
1(
#4270
0(
0&
1'
0*
#4280
1(
#4290
0(
1&
1*
#4300
1(
#4310
0(
0&
0'
0)
1!
0*
#4320
1(
#4330
0(
1&
1*
#4340
1(
#4350
0(
0&
1'
0*
#4360
1(
#4370
0(
1&
1*
#4380
1(
#4390
0(
0&
0'
1)
0*
#4400
1(
#4410
0(
1&
1*
#4420
1(
#4430
0(
0&
1'
0*
#4440
1(
#4450
0(
1&
1*
#4460
1(
#4470
0(
0&
0'
0)
0!
0"
1#
0*
#4480
1(
#4490
0(
1&
#4500
1(
#4510
0(
0&
1'
1*
#4520
1(
#4530
0(
1&
#4540
1(
#4550
0(
0&
0'
1)
0*
#4560
1(
#4570
0(
1&
#4580
1(
#4590
0(
0&
1'
1*
#4600
1(
#4610
0(
1&
#4620
1(
#4630
0(
0&
0'
0)
1!
0*
#4640
1(
#4650
0(
1&
#4660
1(
#4670
0(
0&
1'
1*
#4680
1(
#4690
0(
1&
#4700
1(
#4710
0(
0&
0'
1)
0*
#4720
1(
#4730
0(
1&
#4740
1(
#4750
0(
0&
1'
1*
#4760
1(
#4770
0(
1&
#4780
1(
#4790
0(
0&
0'
0)
0!
1"
0*
#4800
1(
#4810
0(
1&
1*
#4820
1(
#4830
0(
0&
1'
0*
#4840
1(
#4850
0(
1&
1*
#4860
1(
#4870
0(
0&
0'
1)
0*
#4880
1(
#4890
0(
1&
1*
#4900
1(
#4910
0(
0&
1'
0*
#4920
1(
#4930
0(
1&
1*
#4940
1(
#4950
0(
0&
0'
0)
1!
0*
#4960
1(
#4970
0(
1&
1*
#4980
1(
#4990
0(
0&
1'
0*
#5000
1(
#5010
0(
1&
1*
#5020
1(
#5030
0(
0&
0'
1)
0*
#5040
1(
#5050
0(
1&
1*
#5060
1(
#5070
0(
0&
1'
0*
#5080
1(
#5090
0(
1&
1*
#5100
1(
#5110
0(
0&
0'
0)
0!
0"
0#
0$
0%
0*
#5120
1(
#5130
0(
1&
#5140
1(
#5150
0(
0&
1'
#5160
1(
#5170
0(
1&
#5180
1(
#5190
0(
0&
0'
1)
#5200
1(
#5210
0(
1&
#5220
1(
#5230
0(
0&
1'
#5240
1(
#5250
0(
1&
#5260
1(
#5270
0(
0&
0'
0)
1!
